%YAML 1.1
%TAG !u! tag:unity3d.com,2011:
--- !u!114 &11400000
MonoBehaviour:
  m_ObjectHideFlags: 0
  m_CorrespondingSourceObject: {fileID: 0}
  m_PrefabInstance: {fileID: 0}
  m_PrefabAsset: {fileID: 0}
  m_GameObject: {fileID: 0}
  m_Enabled: 1
  m_EditorHideFlags: 0
  m_Script: {fileID: 11500000, guid: 15e5f7014ca58114999c776798430de6, type: 3}
  m_Name: Up 3
  m_EditorClassIdentifier: 
  Elementnumber: 0
  attribute1: HP
  attribute2: 
  attribute3: 
