%YAML 1.1
%TAG !u! tag:unity3d.com,2011:
--- !u!114 &-5702366739511073377
MonoBehaviour:
  m_ObjectHideFlags: 3
  m_CorrespondingSourceObject: {fileID: 0}
  m_PrefabInstance: {fileID: 0}
  m_PrefabAsset: {fileID: 0}
  m_GameObject: {fileID: 0}
  m_Enabled: 1
  m_EditorHideFlags: 0
  m_Script: {fileID: 11500000, guid: 0775cbb206825d541bf6c0297ee524ca, type: 3}
  m_Name: SplitToning
  m_EditorClassIdentifier: 
  active: 1
  shadows:
    m_OverrideState: 0
    m_Value: {r: 0, g: 0, b: 0, a: 1}
  highlights:
    m_OverrideState: 1
    m_Value: {r: 0.34726074, g: 0.28502136, b: 0.5754717, a: 1}
  balance:
    m_OverrideState: 1
    m_Value: 100
--- !u!114 &11400000
MonoBehaviour:
  m_ObjectHideFlags: 0
  m_CorrespondingSourceObject: {fileID: 0}
  m_PrefabInstance: {fileID: 0}
  m_PrefabAsset: {fileID: 0}
  m_GameObject: {fileID: 0}
  m_Enabled: 1
  m_EditorHideFlags: 0
  m_Script: {fileID: 11500000, guid: d7fd9488000d3734a9e00ee676215985, type: 3}
  m_Name: Box Volume Profile
  m_EditorClassIdentifier: 
  components:
  - {fileID: -5702366739511073377}
  - {fileID: 7302350572386380069}
--- !u!114 &7302350572386380069
MonoBehaviour:
  m_ObjectHideFlags: 3
  m_CorrespondingSourceObject: {fileID: 0}
  m_PrefabInstance: {fileID: 0}
  m_PrefabAsset: {fileID: 0}
  m_GameObject: {fileID: 0}
  m_Enabled: 1
  m_EditorHideFlags: 0
  m_Script: {fileID: 11500000, guid: 2c1be1b6c95cd2e41b27903b9270817f, type: 3}
  m_Name: Vignette
  m_EditorClassIdentifier: 
  active: 1
  mode:
    m_OverrideState: 1
    m_Value: 0
  color:
    m_OverrideState: 1
    m_Value: {r: 0.16101918, g: 0, b: 0.4339623, a: 1}
  center:
    m_OverrideState: 1
    m_Value: {x: 0.5, y: 0.5}
  intensity:
    m_OverrideState: 1
    m_Value: 0.392
  smoothness:
    m_OverrideState: 0
    m_Value: 0.167
  roundness:
    m_OverrideState: 0
    m_Value: 0.96
  rounded:
    m_OverrideState: 0
    m_Value: 0
  mask:
    m_OverrideState: 1
    m_Value: {fileID: 2800000, guid: 27dea7535006c274eb124b806535abc3, type: 3}
  opacity:
    m_OverrideState: 0
    m_Value: 1
