%YAML 1.1
%TAG !u! tag:unity3d.com,2011:
--- !u!114 &11400000
MonoBehaviour:
  m_ObjectHideFlags: 0
  m_CorrespondingSourceObject: {fileID: 0}
  m_PrefabInstance: {fileID: 0}
  m_PrefabAsset: {fileID: 0}
  m_GameObject: {fileID: 0}
  m_Enabled: 1
  m_EditorHideFlags: 0
  m_Script: {fileID: 11500000, guid: 24d4e1e710689d44b894bac316ba0a3c, type: 3}
  m_Name: PlayerData 1
  m_EditorClassIdentifier: 
  MaxHp: 100
  MaxMana: 50
  Damage: 5
  Speed: 8
  FireSpeed: 0.18
  Energy: 100
  SkillCooldown: 5
